…
    ##                   Indicator                      Region 
    ##                           0                           0 
    ##                 CountryCode                     Country 
    ##                           0                           0 
    ##                        Year                      Gender 
    ##                           0                           0 
    ##             Life_Expectancy Healthcare_Percent_Spending 
    ##                           0                         363

``` r
df %>% filter(is.na(Healthcare_Percent_Spending))
```

    ## # A tibble: 363 × 8
    ##    Indicator             Region CountryCode Country  Year Gender Life_Expectancy
    ##    <chr>                 <chr>  <chr>       <chr>   <dbl> <chr>            <dbl>
    ##  1 Life expectancy at b… South… PRK         Democr…  2021 Male              69.8
    ##  2 Life expectancy at b… South… PRK         Democr…  2021 Both …            72.6
    ##  3 Life expectancy at b… South… PRK         Democr…  2021 Female            75.6
    ##  4 Life expectancy at b… Ameri… PRI         Puerto…  2021 Male              76.2
    ##  5 Life expectancy at b… Ameri… PRI         Puerto…  2021 Both …            79.9
    ##  6 Life expectancy at b… Ameri… PRI         Puerto…  2021 Female            83.5
    ##  7 Life expectancy at b… South… PRK         Democr…  2020 Male              69.3
    ##  8 Life expectancy at b… South… PRK         Democr…  2020 Both …            72.4
    ##  9 Life expectancy at b… South… PRK         Democr…  2020 Female            75.5
    ## 10 Life expectancy at b… Ameri… PRI         Puerto…  2020 Male              76.1
    ## # ℹ 353 more rows
    ## # ℹ 1 more variable: Healthcare_Percent_Spending <dbl>
…
